…
- hi\_:

  Upper bound for each confidence level.

- sigma:

  Predicted conditional std dev (GARCH models only).

## Examples

``` r
data(AirPassengers)
fit = ts_sarima(log(AirPassengers))
ts_forecast(fit, h = 24)
#> # A tibble: 24 × 6
#>     step forecast lo_80 hi_80 lo_95 hi_95
#>    <int>    <dbl> <dbl> <dbl> <dbl> <dbl>
#>  1     1     6.11  6.06  6.16  6.04  6.18
#>  2     2     6.05  6.00  6.11  5.97  6.14
#>  3     3     6.17  6.11  6.24  6.08  6.27
#>  4     4     6.20  6.13  6.27  6.09  6.30
#>  5     5     6.23  6.16  6.31  6.12  6.35
#>  6     6     6.37  6.29  6.45  6.25  6.49
#>  7     7     6.51  6.43  6.59  6.38  6.64
#>  8     8     6.51  6.42  6.60  6.37  6.64
#>  9     9     6.33  6.23  6.42  6.18  6.47
#> 10    10     6.21  6.11  6.31  6.06  6.36
#> # ℹ 14 more rows
```
